// SPDX-FileCopyrightText: 2021-2 Galagic Limited, et al. <https://galagic.com>
//
// SPDX-License-Identifier: CC-BY-SA-4.0
//
// figular generates visualisations from flexible, reusable parts
//
// For full copyright information see the AUTHORS file at the top-level
// directory of this distribution or at
// [AUTHORS](https://gitlab.com/thegalagic/figular/AUTHORS.md)
//
// This work is licensed under the Creative Commons Attribution 4.0 International
// License. You should have received a copy of the license along with this work.
// If not, visit http://creativecommons.org/licenses/by/4.0/ or send a letter to
// Creative Commons, PO Box 1866, Mountain View, CA 94042, USA.

module TEST

go 1.18

replace gitlab.com/thegalagic/figular/hugo => ../../hugo

require (
	github.com/wowchemy/wowchemy-hugo-themes/modules/wowchemy/v5 v5.7.0 // indirect
	gitlab.com/thegalagic/figular/hugo v0.0.0-20221122110751-e6de42ddaf3f // indirect
)
